(footprint "1X03" (version 20211014) (generator pcbnew)
  (layer "F.Cu")
  (tedit 0)
  (descr "<b>PIN HEADER</b>")
  (fp_text reference "REF**" (at -3.8862 -1.8288) (layer "F.SilkS")
    (effects (font (size 1.143 1.143) (thickness 0.127)) (justify left bottom))
    (tstamp 292d0a21-1f10-48e3-a93e-6a4b4fc5eb38)
  )
  (fp_text value ">VALUE" (at -3.81 3.175) (layer "F.Fab")
    (effects (font (size 1.1684 1.1684) (thickness 0.1016)) (justify left bottom))
    (tstamp 9d68ccf6-9086-4d3c-83b7-883ef0dfe662)
  )
  (fp_line (start 1.27 -0.635) (end 1.905 -1.27) (layer "F.SilkS") (width 0.1524) (tstamp 0762d1cf-b6c5-4c68-9aa5-b818cf058f2c))
  (fp_line (start 0.635 1.27) (end -0.635 1.27) (layer "F.SilkS") (width 0.1524) (tstamp 23219e7f-1fd2-4eda-bc34-0dc3581e1ced))
  (fp_line (start -3.175 -1.27) (end -3.81 -0.635) (layer "F.SilkS") (width 0.1524) (tstamp 2b91bb56-20cc-438b-8f82-6efabd2f6aee))
  (fp_line (start 1.905 -1.27) (end 3.175 -1.27) (layer "F.SilkS") (width 0.1524) (tstamp 329068bd-3250-402f-97a5-01af6c2072bc))
  (fp_line (start -3.175 -1.27) (end -1.905 -1.27) (layer "F.SilkS") (width 0.1524) (tstamp 3e3ba114-aab2-4057-9d0d-3e05dae56237))
  (fp_line (start 1.905 1.27) (end 1.27 0.635) (layer "F.SilkS") (width 0.1524) (tstamp 5d637393-ce1c-436d-9d94-0c90a6043c78))
  (fp_line (start -1.27 0.635) (end -1.905 1.27) (layer "F.SilkS") (width 0.1524) (tstamp 61221899-fd06-4449-96c7-3a9edf93ece7))
  (fp_line (start 0.635 -1.27) (end 1.27 -0.635) (layer "F.SilkS") (width 0.1524) (tstamp 658868d2-3f20-4ba3-ab3e-10c65850bc80))
  (fp_line (start -0.635 -1.27) (end 0.635 -1.27) (layer "F.SilkS") (width 0.1524) (tstamp 6a4d0f45-9883-400f-baef-b26ab5066dda))
  (fp_line (start -3.81 0.635) (end -3.175 1.27) (layer "F.SilkS") (width 0.1524) (tstamp 6f8bb859-d48b-422a-823b-0914d275e8d5))
  (fp_line (start -1.27 -0.635) (end -0.635 -1.27) (layer "F.SilkS") (width 0.1524) (tstamp 80b24765-9c50-4d97-866d-caeca1e46b20))
  (fp_line (start -1.905 1.27) (end -3.175 1.27) (layer "F.SilkS") (width 0.1524) (tstamp 892b8707-2c72-4ec9-9315-4273c94b0199))
  (fp_line (start 3.175 1.27) (end 1.905 1.27) (layer "F.SilkS") (width 0.1524) (tstamp 8f2429ee-2f83-4e32-b0dc-81047e4a4a75))
  (fp_line (start -1.27 -0.635) (end -1.27 0.635) (layer "F.SilkS") (width 0.1524) (tstamp 93980e57-da58-4568-9984-933d96fd7157))
  (fp_line (start 1.27 0.635) (end 0.635 1.27) (layer "F.SilkS") (width 0.1524) (tstamp a8c25069-bf62-47f2-a523-111f46dc4327))
  (fp_line (start -3.81 -0.635) (end -3.81 0.635) (layer "F.SilkS") (width 0.1524) (tstamp ab51b400-cdea-4dd7-a7f5-eea0d70bf03b))
  (fp_line (start 1.27 -0.635) (end 1.27 0.635) (layer "F.SilkS") (width 0.1524) (tstamp acbe6985-ab50-4aa6-a1eb-e5cb371db4ce))
  (fp_line (start 3.81 0.635) (end 3.175 1.27) (layer "F.SilkS") (width 0.1524) (tstamp ba05301b-615e-42e6-9645-d83d0f8aefb9))
  (fp_line (start -0.635 1.27) (end -1.27 0.635) (layer "F.SilkS") (width 0.1524) (tstamp bb56d375-9de1-4053-abf2-c72fb57836f9))
  (fp_line (start 3.175 -1.27) (end 3.81 -0.635) (layer "F.SilkS") (width 0.1524) (tstamp bef7afdf-78a9-40e5-aeb9-ef5b923a9599))
  (fp_line (start -1.905 -1.27) (end -1.27 -0.635) (layer "F.SilkS") (width 0.1524) (tstamp c8b19a0e-fe5e-44fd-81c4-10d647753ee8))
  (fp_line (start 3.81 -0.635) (end 3.81 0.635) (layer "F.SilkS") (width 0.1524) (tstamp e7a4f544-00cc-41d6-b8dc-e4c768569eb4))
  (fp_poly (pts
      (xy -2.794 0.254)
      (xy -2.286 0.254)
      (xy -2.286 -0.254)
      (xy -2.794 -0.254)
    ) (layer "F.Fab") (width 0) (fill solid) (tstamp 03089e09-b8d3-4a0d-bd2a-bff21a4d11d6))
  (fp_poly (pts
      (xy 2.286 0.254)
      (xy 2.794 0.254)
      (xy 2.794 -0.254)
      (xy 2.286 -0.254)
    ) (layer "F.Fab") (width 0) (fill solid) (tstamp 21fd487d-3b44-4c25-b4c1-b0f114395638))
  (fp_poly (pts
      (xy -0.254 0.254)
      (xy 0.254 0.254)
      (xy 0.254 -0.254)
      (xy -0.254 -0.254)
    ) (layer "F.Fab") (width 0) (fill solid) (tstamp e5a5ca47-2cc1-45a1-835e-86cb4cc355ce))
  (pad "1" thru_hole oval (at -2.54 0 90) (size 1.8288 1.524) (drill 1.016) (layers *.Cu *.Mask)
    (solder_mask_margin 0.0762) (tstamp 213b9cce-cf66-4913-baa6-17bb4df14228))
  (pad "2" thru_hole oval (at 0 0 90) (size 1.8288 1.524) (drill 1.016) (layers *.Cu *.Mask)
    (solder_mask_margin 0.0762) (tstamp 9794d520-eb46-40b0-8192-1fa03505ea1b))
  (pad "3" thru_hole oval (at 2.54 0 90) (size 1.8288 1.524) (drill 1.016) (layers *.Cu *.Mask)
    (solder_mask_margin 0.0762) (tstamp 66e91824-d336-4110-88dc-70b4c482c628))
)
