(footprint "DIL08" (version 20211014) (generator pcbnew)
  (layer "F.Cu")
  (tedit 0)
  (descr "<B>Dual In Line</B>")
  (fp_text reference "REF**" (at -5.3594 2.54 90) (layer "F.SilkS")
    (effects (font (size 1.143 1.143) (thickness 0.127)) (justify left bottom))
    (tstamp 8ce99181-2aab-4af7-bb84-ffd20c2a836d)
  )
  (fp_text value ">VALUE" (at -3.81 0.9906) (layer "F.Fab")
    (effects (font (size 1.143 1.143) (thickness 0.127)) (justify left bottom))
    (tstamp a7c26330-71a4-42ed-a236-a739e6095f17)
  )
  (fp_line (start -5.08 0.635) (end -5.08 2.794) (layer "F.SilkS") (width 0.1524) (tstamp 27e6cdca-d760-4e8d-8876-7f33c27bf69a))
  (fp_line (start 5.08 -2.794) (end -5.08 -2.794) (layer "F.SilkS") (width 0.1524) (tstamp b61789f5-a133-4c49-a294-98fe0ce6d16e))
  (fp_line (start 5.08 2.794) (end 5.08 -2.794) (layer "F.SilkS") (width 0.1524) (tstamp d995133b-c638-42fa-ad91-148145dccfed))
  (fp_line (start -5.08 -2.794) (end -5.08 -0.635) (layer "F.SilkS") (width 0.1524) (tstamp e32eddb4-8fcf-4c95-80cb-c9c1e815ea0a))
  (fp_line (start -5.08 2.794) (end 5.08 2.794) (layer "F.SilkS") (width 0.1524) (tstamp ef0804c9-dbaa-4b4c-b589-6c1c1161877c))
  (fp_arc (start -5.08 -0.635) (mid -4.445 0) (end -5.08 0.635) (layer "F.SilkS") (width 0.1524) (tstamp 77d6d97e-ff96-42e8-8e06-68037eee714a))
  (pad "1" thru_hole oval (at -3.81 3.81 90) (size 1.46304 1.2192) (drill 0.8128) (layers *.Cu *.Mask)
    (solder_mask_margin 0.0762) (tstamp 38ddf6ed-dafd-46f5-a5c4-285d1f667c48))
  (pad "2" thru_hole oval (at -1.27 3.81 90) (size 1.46304 1.2192) (drill 0.8128) (layers *.Cu *.Mask)
    (solder_mask_margin 0.0762) (tstamp 6e7b2686-e12c-4c78-a3d4-369d361ac0f7))
  (pad "3" thru_hole oval (at 1.27 3.81 90) (size 1.46304 1.2192) (drill 0.8128) (layers *.Cu *.Mask)
    (solder_mask_margin 0.0762) (tstamp 86be9683-6846-47c0-b74e-a4b7422cc528))
  (pad "4" thru_hole oval (at 3.81 3.81 90) (size 1.46304 1.2192) (drill 0.8128) (layers *.Cu *.Mask)
    (solder_mask_margin 0.0762) (tstamp 03528b39-e302-4d63-a8a1-d8c7c2cf5e76))
  (pad "5" thru_hole oval (at 3.81 -3.81 90) (size 1.46304 1.2192) (drill 0.8128) (layers *.Cu *.Mask)
    (solder_mask_margin 0.0762) (tstamp 51d63a41-7cee-4ece-b241-7c773e513395))
  (pad "6" thru_hole oval (at 1.27 -3.81 90) (size 1.46304 1.2192) (drill 0.8128) (layers *.Cu *.Mask)
    (solder_mask_margin 0.0762) (tstamp 1835c286-1e83-4119-a051-b038cb5857c4))
  (pad "7" thru_hole oval (at -1.27 -3.81 90) (size 1.46304 1.2192) (drill 0.8128) (layers *.Cu *.Mask)
    (solder_mask_margin 0.0762) (tstamp 3f6045fe-eab3-437f-9a26-fd4714cd16e6))
  (pad "8" thru_hole oval (at -3.81 -3.81 90) (size 1.46304 1.2192) (drill 0.8128) (layers *.Cu *.Mask)
    (solder_mask_margin 0.0762) (tstamp 022e9634-7a83-4b77-9bce-98493cfb8917))
)
