(footprint "SOT230P696X180-4N" (version 20211014) (generator pcbnew)
  (layer "F.Cu")
  (tedit 0)
  (fp_text reference "REF**" (at -4.6482 -3.6068) (layer "F.SilkS")
    (effects (font (size 1.87452 1.87452) (thickness 0.20828)) (justify left bottom))
    (tstamp 45acc65f-5385-4b88-bb2a-83a783d424be)
  )
  (fp_text value ">VALUE" (at -5.461 5.588) (layer "F.Fab")
    (effects (font (size 1.87452 1.87452) (thickness 0.20828)) (justify left bottom))
    (tstamp 80e104a6-9753-4a62-a9cf-aef445ca09e1)
  )
  (fp_text user "*" (at -4.0386 -2.3368) (layer "F.SilkS")
    (effects (font (size 1.1938 1.1938) (thickness 0.0762)) (justify left bottom))
    (tstamp e0dc8c75-5e1a-43b5-a319-fdd44838ae60)
  )
  (fp_text user "*" (at -4.0386 -2.3368) (layer "F.Fab")
    (effects (font (size 1.1938 1.1938) (thickness 0.0762)) (justify left bottom))
    (tstamp 90b9dcba-d49d-46ec-9831-f932fab4f482)
  )
  (fp_line (start -1.8542 3.3528) (end 1.8542 3.3528) (layer "F.SilkS") (width 0.1524) (tstamp 12f1b536-16fc-45ea-8d14-22855917f070))
  (fp_line (start 1.8542 3.3528) (end 1.8542 -3.3528) (layer "F.SilkS") (width 0.1524) (tstamp 2840fb92-16a6-4bd5-9732-908bfb4939eb))
  (fp_line (start -1.8542 -3.3528) (end -1.8542 3.3528) (layer "F.SilkS") (width 0.1524) (tstamp 5e27876c-a20f-41ea-b29d-21d796a95bc2))
  (fp_line (start 1.8542 -3.3528) (end -1.8542 -3.3528) (layer "F.SilkS") (width 0.1524) (tstamp 720d86cd-7668-4bd8-9c3d-2f30a3c5c495))
  (fp_line (start 1.8542 -1.5494) (end 1.8542 1.5494) (layer "F.Fab") (width 0.1524) (tstamp 01c2bf7c-c3e8-4b10-866f-25c66cafec9a))
  (fp_line (start -3.6576 0.381) (end -1.8542 0.381) (layer "F.Fab") (width 0.1524) (tstamp 23a71dbe-e934-41ef-a3f8-6ee5ef3e819d))
  (fp_line (start -3.6576 -0.4064) (end -3.6576 0.381) (layer "F.Fab") (width 0.1524) (tstamp 2c611495-240c-4cf8-9640-209f40eab487))
  (fp_line (start 1.8542 -3.3528) (end -1.8542 -3.3528) (layer "F.Fab") (width 0.1524) (tstamp 2e84548a-dcf1-462f-9265-f4d5bb91380a))
  (fp_line (start -3.6576 1.905) (end -3.6576 2.6924) (layer "F.Fab") (width 0.1524) (tstamp 402cd0e2-e6c8-452f-a2f1-cf7e61250d5e))
  (fp_line (start -1.8542 2.6924) (end -1.8542 1.905) (layer "F.Fab") (width 0.1524) (tstamp 427d0788-cc02-45fe-b0a7-9cdba4f059c0))
  (fp_line (start -3.6576 -1.905) (end -1.8542 -1.905) (layer "F.Fab") (width 0.1524) (tstamp 45663a91-3b93-48f3-bce1-62ee5ae4cf38))
  (fp_line (start -1.8542 -1.905) (end -1.8542 -2.6924) (layer "F.Fab") (width 0.1524) (tstamp 4d043ba3-691f-46ad-9385-5be4ea781773))
  (fp_line (start -1.8542 -0.4064) (end -3.6576 -0.4064) (layer "F.Fab") (width 0.1524) (tstamp 5c55016a-65ab-44a4-8107-d2388363f76c))
  (fp_line (start 1.8542 3.3528) (end 1.8542 -3.3528) (layer "F.Fab") (width 0.1524) (tstamp 6c847868-390b-450e-ab51-ce69c8c889ff))
  (fp_line (start -3.6576 2.6924) (end -1.8542 2.6924) (layer "F.Fab") (width 0.1524) (tstamp 8d66ce25-7d09-48a8-846c-5eb84e780a5d))
  (fp_line (start -1.8542 1.905) (end -3.6576 1.905) (layer "F.Fab") (width 0.1524) (tstamp 9e4c6d87-f4aa-47ed-b4df-bdd61e7a6662))
  (fp_line (start 3.6576 1.5494) (end 3.6576 -1.5494) (layer "F.Fab") (width 0.1524) (tstamp 9fddd0ce-37d7-4590-a79d-1dea1888d231))
  (fp_line (start 1.8542 1.5494) (end 3.6576 1.5494) (layer "F.Fab") (width 0.1524) (tstamp a8529a16-84b7-491c-8ac0-cf8c024fa433))
  (fp_line (start -1.8542 -3.3528) (end -1.8542 3.3528) (layer "F.Fab") (width 0.1524) (tstamp a9c700dc-6cab-4942-942b-f495706689eb))
  (fp_line (start -1.8542 3.3528) (end 1.8542 3.3528) (layer "F.Fab") (width 0.1524) (tstamp b551d9c4-ff33-4c08-9fb4-1170a721b351))
  (fp_line (start -3.6576 -2.6924) (end -3.6576 -1.905) (layer "F.Fab") (width 0.1524) (tstamp c4d8196c-08ab-4bd7-8b83-381d079d2758))
  (fp_line (start -1.8542 0.381) (end -1.8542 -0.4064) (layer "F.Fab") (width 0.1524) (tstamp d24e1e3f-fe19-49b1-9dda-db8550df9842))
  (fp_line (start -1.8542 -2.6924) (end -3.6576 -2.6924) (layer "F.Fab") (width 0.1524) (tstamp d64d37d3-29e5-4da0-87f5-dd417125a0d0))
  (fp_line (start 3.6576 -1.5494) (end 1.8542 -1.5494) (layer "F.Fab") (width 0.1524) (tstamp e3ad818e-8009-4163-8ff0-55d855edee43))
  (pad "1" smd roundrect (at -3.2004 -2.3114) (size 1.6002 0.8382) (layers "F.Cu" "F.Paste" "F.Mask") (roundrect_rratio 0.303030303)
    (solder_mask_margin 0.0762) (tstamp 7f34389a-41a2-4583-ab21-574d732c1a39))
  (pad "2" smd roundrect (at -3.2004 0) (size 1.6002 0.8382) (layers "F.Cu" "F.Paste" "F.Mask") (roundrect_rratio 0.303030303)
    (solder_mask_margin 0.0762) (tstamp 8ccbb8b1-4ad3-477f-907f-9f145f9754fc))
  (pad "3" smd roundrect (at -3.2004 2.3114) (size 1.6002 0.8382) (layers "F.Cu" "F.Paste" "F.Mask") (roundrect_rratio 0.303030303)
    (solder_mask_margin 0.0762) (tstamp 47e4a2b4-9891-4221-833f-361a87f55192))
  (pad "4" smd roundrect (at 3.2004 0) (size 1.6002 3.0988) (layers "F.Cu" "F.Paste" "F.Mask") (roundrect_rratio 0.1587301587)
    (solder_mask_margin 0.0762) (tstamp 70b89a5f-fc90-4b19-8aa9-33b7feed996e))
)
